[20191113-152116]	81	(8+1)^2
[20191113-152116]	100	(10+0)^2
[20191113-152116]	1296	(1+29+6)^2
[20191113-152116]	2025	(20+25)^2
[20191113-152116]	3025	(30+25)^2
[20191113-152117]	6724	(6+72+4)^2
[20191113-152117]	8281	(8+2+81)^2, (82+8+1)^2
[20191113-152117]	9801	(98+01)^2, (98+0+1)^2
[20191113-152117]	10000	(100+00)^2, (100+0+0)^2
[20191113-152126]	55225	(5+5+225)^2
[20191113-152131]	88209	(88+209)^2
[20191113-152141]	136161	(1+361+6+1)^2
[20191113-152141]	136900	(1+369+00)^2, (1+369+0+0)^2
[20191113-152142]	143641	(14+364+1)^2
[20191113-152149]	171396	(17+1+396)^2
[20191113-152248]	431649	(4+3+1+649)^2
[20191113-152254]	455625	(45+5+625)^2
[20191113-152302]	494209	(494+209)^2
[20191113-152319]	571536	(5+715+36)^2
[20191113-152332]	627264	(62+726+4)^2
[20191113-152416]	826281	(826+2+81)^2
[20191113-152421]	842724	(842+72+4)^2
[20191113-152431]	893025	(8+930+2+5)^2
[20191113-152440]	929296	(929+29+6)^2
[20191113-152451]	980100	(980+10+0)^2
[20191113-152451]	982081	(982+08+1)^2, (982+0+8+1)^2
[20191113-152456]	998001	(998+001)^2, (998+0+01)^2, (998+00+1)^2, (998+0+0+1)^2
[20191113-152456]	1000000	(1000+000)^2, (1000+0+00)^2, (1000+00+0)^2, (1000+0+0+0)^2
[20191113-152919]	1679616	(1+679+616)^2
[20191113-153705]	2896804	(2+896+804)^2
[20191113-153852]	3175524	(3+1755+24)^2
[20191113-155007]	4941729	(494+1729)^2
[20191113-160550]	7441984	(744+1984)^2
[20191113-163724]	11329956	(11+3299+56)^2
[20191113-165950]	13293316	(1+329+3316)^2
[20191113-170253]	13557124	(1+3557+124)^2
[20191113-174317]	17073424	(1+707+3424)^2
[20191113-190029]	23804641	(238+04641)^2, (238+0+4641)^2
[20191113-190332]	24068836	(2+4068+836)^2
[20191113-190837]	24502500	(2450+2500)^2
[20191113-192009]	25502500	(2550+2500)^2, (25+5025+00)^2, (25+5025+0+0)^2
[20191113-193147]	26512201	(26+5122+01)^2, (26+5122+0+1)^2
[20191113-194859]	28005264	(28+005264)^2, (28+0+05264)^2, (28+00+5264)^2, (28+0+0+5264)^2
[20191113-232325]	46676224	(46+6762+24)^2
[20191114-002118]	51710481	(5+1+7104+81)^2
[20191114-003443]	52881984	(5288+1984)^2
[20191114-005433]	54597321	(5+4+59+7321)^2, (54+5+9+7321)^2
[20191216-162422]	56746089	(56+7460+8+9)^2
[20191216-162645]	56896849	(5+689+6849)^2
[20191216-163706]	57562569	(5+7562+5+6+9)^2
[20191216-172135]	60481729	(6048+1729)^2
[20191216-180424]	63297936	(6+3+2+9+7936)^2
[20191216-195839]	70829056	(70+8290+56)^2
[20191216-200532]	71284249	(7+1+2+8424+9)^2
[20191216-212958]	76860289	(76+8602+89)^2
[20191216-215343]	78428736	(78+42+8736)^2
[20191216-220812]	79388100	(7+93+8810+0)^2
[20191216-221545]	79887844	(7+9+8878+44)^2
[20191216-232946]	84787264	(8478+726+4)^2
[20191216-235941]	86769225	(8+6+76+9225)^2
[20191217-000229]	86955625	(8695+5+625)^2
[20191217-011922]	91891396	(9189+1+396)^2
[20191217-013053]	92563641	(9256+364+1)^2
[20191217-013713]	92929600	(9+29+2+9600)^2
[20191217-021853]	95355225	(9535+5+225)^2
[20191217-030449]	98029801	(98+02+9801)^2, (9802+98+01)^2, (98+0+2+9801)^2, (9802+98+0+1)^2
[20191217-030732]	98188281	(9818+8+2+81)^2, (9818+82+8+1)^2
[20191217-031035]	98366724	(9836+6+72+4)^2
[20191217-031854]	98903025	(9890+30+25)^2
[20191217-032154]	99102025	(9910+20+25)^2
[20191217-032435]	99281296	(9928+1+29+6)^2
[20191217-033224]	99800100	(9980+010+0)^2, (9980+0+10+0)^2
[20191217-033241]	99820081	(9982+008+1)^2, (9982+0+08+1)^2, (9982+00+8+1)^2, (9982+0+0+8+1)^2
[20191217-033506]	99980001	(9998+0001)^2, (9998+0+001)^2, (9998+00+01)^2, (9998+000+1)^2, (9998+0+0+01)^2, (9998+0+00+1)^2, (9998+00+0+1)^2, (9998+0+0+0+1)^2
[20191217-033525]	100000000	(10000+0000)^2, (10000+0+000)^2, (10000+00+00)^2, (10000+000+0)^2, (10000+0+0+00)^2, (10000+0+00+0)^2, (10000+00+0+0)^2, (10000+0+0+0+0)^2
[20191217-174905]	110502144	(1+10502+1+4+4)^2
[20191218-135714]	149377284	(1+4937+7284)^2
[20191219-102433]	161976529	(1+6197+6529)^2
